1;0;Structures de données
2;0;Bases de données
3;0;Architectures matérielles, systèmes d’exploitation et réseaux
4;0;Langages et programmation
5;0;Algorithmique
6;0;Histoire de l'informatique
11;1;Types et valeurs de base
12;1;Types construits
13;1;Traitement de données en tables
14;1;Interactions entre l’homme et la machine sur le Web
15;1;Architectures matérielles et systèmes d’exploitation
16;1;Langages et programmation
17;1;Algorithmique
18;1;Histoire de l'informatique
